[
    {
        "id": 0,
        "question": "How many rows will appear in the truth table for the proposition 'p -> ~q' ?",
        "answers" : [
            {
                "correct": "4",
                "wrong": [
                    "5", "7", "8"
                ]
            }
        ]
    },
    {
        "id": 1,
        "question": "How is the statement 'p -> q' expressed in English?",
        "answers": [
            {
                "correct": "p implies q",
                "wrong": [
                    "p bi-imples q", "q implies p", "p and q"
                ]
            }
        ]
    },
    {
        "id": 2,
        "question": "How is the statement 'p ∧ q' expressed in English?",
        "answers": [
            {
                "correct": "p and q",
                "wrong": [
                    "p implies q", "p or q", "p to the power q"
                ]
            }
        ]
    },
    {
        "id": 3,
        "question": "How is the statement 'p ∨ q' expressed in English?",
        "answers": [
            {
                "correct": "p or q",
                "wrong": [
                    "p implies q", "p and q", "p to the power q"
                ]
            }
        ]
    },
    {
        "id": 4,
        "question": "How many rows will appear in the truth table for the proposition '(p ∨ ~r) ∧ (q ∨ ~s)' ?",
        "answers" : [
            {
                "correct": "16",
                "wrong": [
                    "14", "7", "8"
                ]
            }
        ]
    },
    {
        "id": 5,
        "question": "Which of the following sentences has the logical form '(p ∧ q) -> r' ?",
        "answers" : [
            {
                "correct":"If inflation is up and an election is approaching, then public borrowing goes up.",
                "wrong": [
                    "If you miss the party, then Jane, who is already upset, will be angry with you.", "Handel is great, and the same goes for Vivaldi.", "Heavy traffic and rain have put him in a bad mood."
                ]
            }
        ]
    },
    {
        "id": 6,
        "question": "Which of the following propositional formulas is satisfied by the valuation which assigns T to p, and F to q and r.",
        "answers" : [
            {
                "correct":"~(~r -> (p ∧ q))",
                "wrong": [
                    "(~p ∨ ~r) -> q", "~r -> (p ∧ q)", "~p ∨ q ∨ r"
                ]
            }
        ]
    },
    {
        "id": 7,
        "question": "What is the definition of a formula being 'satisfiable' ?",
        "answers" : [
            {
                "correct":"A formula is satisfiable if there exists a truth assignment that makes it true",
                "wrong": [
                    "A formula is satisfiable if it is a tautology", "A formula is satisfiable if it is not a contradiction", "A formula is satisfiable if it contains more than one propositional variable"
                ]
            }
        ]
    },
    {
        "id": 8,
        "question": "What does it mean for a formula to be a 'tautology' ?",
        "answers" : [
            {
                "correct":"A formula is a tautology if it is true under every truth assignment",
                "wrong": [
                    "A formula is a tautology if it is true with at least one truth assignment", "A formula is a tautology if it is satisfiable", "A formula is a tautology if it contains exactly 3 propositional variables"
                ]
            }
        ]
    },
    {
        "id": 9,
        "question": "What does it mean for a formula to be a 'contradiction' ?",
        "answers" : [
            {
                "correct":"A formula is a contradiction if it is false under every truth assignment",
                "wrong": [
                    "A formula is a contradiction if it is false with at least one truth assignment", "A formula is a contradiction if it is not a tautology", "A formula is a contradiction if it is not a contingency"
                ]
            }
        ]
    },
    {
        "id": 10,
        "question": "What does it mean for a formula to be a 'contingency' ?",
        "answers" : [
            {
                "correct":"A formula is a contingency if it is neither a tautology nor a contradiction",
                "wrong": [
                    "A formula is a contingency if it is false with at least one truth assignment", "A formula is a contingency if it is not a tautology", "A formula is a contingency if it has exactly 2 propositional variables"
                ]
            }
        ]
    },
    {
        "id": 11,
        "question": "Which of the following propositional formulas is a tautology?",
        "answers" : [
            {
                "correct":"(p <-> q) ∨ (p <-> ~q)",
                "wrong": [
                    "~p ∧ T", "r -> (p ∧ ~r)", "~(p -> (p ∧ q))"
                ]
            }
        ]
    },
    {
        "id": 12,
        "question": "Which of the following propositional formulas is a contradiction?",
        "answers" : [
            {
                "correct":"p ∨ F",
                "wrong": [
                    "~p ∧ T", "r -> (p ∧ ~r)", "~(p -> (p ∧ q))"
                ]
            }
        ]
    }
]